Data transformation
…
write_csv(sinai_covid, "printed_sinai_covid.csv")
```

---
# Arrange

``` r
library(dplyr)

arrange(sinai_covid, by = age)
```

```
## # A tibble: 500 × 18
##       id   age sex    race  ethnicity facility smoking_status asthma  copd   htn
##    <dbl> <dbl> <chr>  <chr> <chr>     <chr>    <chr>           <dbl> <dbl> <dbl>
##  1  3313     0 MALE   OTHER MEXICAN … THE MOU… NEVER               0     0     0
##  2  1081     9 FEMALE OTHER LATIN AM… THE MOU… NEVER               0     0     0
##  3   940    11 FEMALE ASIA… NON-HISP… THE MOU… NEVER               0     0     0
##  4  4159    15 MALE   OTHER NON-HISP… THE MOU… NEVER               0     0     1
##  5  4995    18 FEMALE OTHER PUERTO R… THE MOU… NEVER               0     0     0
##  6   196    20 MALE   WHITE NON-HISP… THE MOU… NEVER               0     0     0
##  7    21    21 FEMALE WHITE NON-HISP… THE MOU… NEVER               0     0     0
##  8  2774    21 MALE   OTHER NON-HISP… THE MOU… NEVER               0     0     1
##  9  4722    21 FEMALE AFRI… NON-HISP… MOUNT S… NEVER               0     0     0
## 10  3782    22 MALE   OTHER PERUVIAN  THE MOU… NEVER               0     0     0
## # ℹ 490 more rows
## # ℹ 8 more variables: obesity <dbl>, diabetes <dbl>,
## #   chronic_kidney_disease <dbl>, hiv_flag <dbl>, cancer_flag <dbl>, bmi <dbl>,
## #   deceased_indicator <dbl>, deceased_days_since_encounter <dbl>
```

---
# Filter

<img src="img/filter.png" width="100%" />

---
# Filter

``` r
filter(sinai_covid, age > 50)
```

```
## # A tibble: 374 × 18
##       id   age sex    race  ethnicity facility smoking_status asthma  copd   htn
##    <dbl> <dbl> <chr>  <chr> <chr>     <chr>    <chr>           <dbl> <dbl> <dbl>
##  1     6    63 MALE   WHITE NON-HISP… THE MOU… QUIT                0     0     1
##  2    11    64 MALE   AFRI… NON-HISP… THE MOU… NEVER               0     1     1
##  3    46    51 FEMALE OTHER NON-HISP… MOUNT S… NEVER               0     0     0
##  4    47    72 MALE   WHITE NON-HISP… THE MOU… NEVER               0     0     0
##  5    63    67 FEMALE AFRI… NON-HISP… MOUNT S… QUIT                0     0     1
##  6    67    83 FEMALE WHITE DOMINICAN MOUNT S… NEVER               0     0     0
##  7    86    73 FEMALE AFRI… UNKNOWN   MOUNT S… QUIT                0     0     0
##  8    90    59 FEMALE AFRI… NON-HISP… MOUNT S… QUIT                1     1     1
##  9    92    65 FEMALE WHITE NON-HISP… THE MOU… NEVER               0     0     0
## 10   103    60 MALE   WHITE NON-HISP… MOUNT S… NEVER               0     0     0
## # ℹ 364 more rows
## # ℹ 8 more variables: obesity <dbl>, diabetes <dbl>,
## #   chronic_kidney_disease <dbl>, hiv_flag <dbl>, cancer_flag <dbl>, bmi <dbl>,
## #   deceased_indicator <dbl>, deceased_days_since_encounter <dbl>
```

---
# Filter

``` r
filter(sinai_covid, age > 50 & sex == "FEMALE")
```

```
## # A tibble: 168 × 18
##       id   age sex    race  ethnicity facility smoking_status asthma  copd   htn
##    <dbl> <dbl> <chr>  <chr> <chr>     <chr>    <chr>           <dbl> <dbl> <dbl>
##  1    46    51 FEMALE OTHER NON-HISP… MOUNT S… NEVER               0     0     0
##  2    63    67 FEMALE AFRI… NON-HISP… MOUNT S… QUIT                0     0     1
##  3    67    83 FEMALE WHITE DOMINICAN MOUNT S… NEVER               0     0     0
##  4    86    73 FEMALE AFRI… UNKNOWN   MOUNT S… QUIT                0     0     0
##  5    90    59 FEMALE AFRI… NON-HISP… MOUNT S… QUIT                1     1     1
##  6    92    65 FEMALE WHITE NON-HISP… THE MOU… NEVER               0     0     0
##  7   138    83 FEMALE OTHER DOMINICAN MOUNT S… NEVER               0     0     0
##  8   186    68 FEMALE CHIN… UNKNOWN   THE MOU… NEVER               0     0     0
##  9   259    72 FEMALE AFRI… NON-HISP… MOUNT S… NEVER               0     0     0
## 10   260    63 FEMALE AFRI… NON-HISP… MOUNT S… QUIT                0     0     0
## # ℹ 158 more rows
## # ℹ 8 more variables: obesity <dbl>, diabetes <dbl>,
## #   chronic_kidney_disease <dbl>, hiv_flag <dbl>, cancer_flag <dbl>, bmi <dbl>,
## #   deceased_indicator <dbl>, deceased_days_since_encounter <dbl>
```

---
# Filter

``` r
filter(sinai_covid, age > 50, sex == "FEMALE")
```

```
## # A tibble: 168 × 18
##       id   age sex    race  ethnicity facility smoking_status asthma  copd   htn
##    <dbl> <dbl> <chr>  <chr> <chr>     <chr>    <chr>           <dbl> <dbl> <dbl>
##  1    46    51 FEMALE OTHER NON-HISP… MOUNT S… NEVER               0     0     0
##  2    63    67 FEMALE AFRI… NON-HISP… MOUNT S… QUIT                0     0     1
##  3    67    83 FEMALE WHITE DOMINICAN MOUNT S… NEVER               0     0     0
##  4    86    73 FEMALE AFRI… UNKNOWN   MOUNT S… QUIT                0     0     0
##  5    90    59 FEMALE AFRI… NON-HISP… MOUNT S… QUIT                1     1     1
##  6    92    65 FEMALE WHITE NON-HISP… THE MOU… NEVER               0     0     0
##  7   138    83 FEMALE OTHER DOMINICAN MOUNT S… NEVER               0     0     0
##  8   186    68 FEMALE CHIN… UNKNOWN   THE MOU… NEVER               0     0     0
##  9   259    72 FEMALE AFRI… NON-HISP… MOUNT S… NEVER               0     0     0
## 10   260    63 FEMALE AFRI… NON-HISP… MOUNT S… QUIT                0     0     0
## # ℹ 158 more rows
## # ℹ 8 more variables: obesity <dbl>, diabetes <dbl>,
## #   chronic_kidney_disease <dbl>, hiv_flag <dbl>, cancer_flag <dbl>, bmi <dbl>,
## #   deceased_indicator <dbl>, deceased_days_since_encounter <dbl>
```

---
# Filter

``` r
filter(sinai_covid, age > 50 | sex == "FEMALE")
```

```
## # A tibble: 428 × 18
##       id   age sex    race  ethnicity facility smoking_status asthma  copd   htn
##    <dbl> <dbl> <chr>  <chr> <chr>     <chr>    <chr>           <dbl> <dbl> <dbl>
##  1     6    63 MALE   WHITE NON-HISP… THE MOU… QUIT                0     0     1
##  2    11    64 MALE   AFRI… NON-HISP… THE MOU… NEVER               0     1     1
##  3    21    21 FEMALE WHITE NON-HISP… THE MOU… NEVER               0     0     0
##  4    46    51 FEMALE OTHER NON-HISP… MOUNT S… NEVER               0     0     0
##  5    47    72 MALE   WHITE NON-HISP… THE MOU… NEVER               0     0     0
##  6    63    67 FEMALE AFRI… NON-HISP… MOUNT S… QUIT                0     0     1
##  7    67    83 FEMALE WHITE DOMINICAN MOUNT S… NEVER               0     0     0
##  8    86    73 FEMALE AFRI… UNKNOWN   MOUNT S… QUIT                0     0     0
##  9    90    59 FEMALE AFRI… NON-HISP… MOUNT S… QUIT                1     1     1
## 10    92    65 FEMALE WHITE NON-HISP… THE MOU… NEVER               0     0     0
## # ℹ 418 more rows
## # ℹ 8 more variables: obesity <dbl>, diabetes <dbl>,
## #   chronic_kidney_disease <dbl>, hiv_flag <dbl>, cancer_flag <dbl>, bmi <dbl>,
## #   deceased_indicator <dbl>, deceased_days_since_encounter <dbl>
```

---
# Select

``` r
select(sinai_covid, id, age, facility)
```

```
## # A tibble: 500 × 3
##       id   age facility                   
##    <dbl> <dbl> <chr>                      
##  1     6    63 THE MOUNT SINAI HOSPITAL   
##  2    11    64 THE MOUNT SINAI HOSPITAL   
##  3    21    21 THE MOUNT SINAI HOSPITAL   
##  4    46    51 MOUNT SINAI QUEENS HOSPITAL
##  5    47    72 THE MOUNT SINAI HOSPITAL   
##  6    63    67 MOUNT SINAI QUEENS HOSPITAL
##  7    67    83 MOUNT SINAI WEST           
##  8    86    73 MOUNT SINAI BI BROOKLYN    
##  9    90    59 MOUNT SINAI QUEENS HOSPITAL
## 10    92    65 THE MOUNT SINAI HOSPITAL   
## # ℹ 490 more rows
```

---
## Combine functions

``` r
x <- filter(sinai_covid, age > 50)

x <- select(x, id, age, facility)

arrange(x, age)
```

```
## # A tibble: 374 × 3
##       id   age facility                   
##    <dbl> <dbl> <chr>                      
##  1    46    51 MOUNT SINAI QUEENS HOSPITAL
##  2  2323    51 THE MOUNT SINAI HOSPITAL   
##  3  3894    51 THE MOUNT SINAI HOSPITAL   
##  4  4230    51 MOUNT SINAI BI BROOKLYN    
##  5   439    52 THE MOUNT SINAI HOSPITAL   
##  6   450    52 MOUNT SINAI BI BROOKLYN    
##  7  3812    52 THE MOUNT SINAI HOSPITAL   
##  8  3900    52 MOUNT SINAI WEST           
##  9  4104    52 MOUNT SINAI BI BROOKLYN    
## 10  4864    52 MOUNT SINAI QUEENS HOSPITAL
## # ℹ 364 more rows
```
…
<img src="img/mutate.png" width="80%" style="display: block; margin: auto;" />

---
# Mutate

``` r
x <- mutate(sinai_covid, bmi_log = log10(bmi))

select(x, id, bmi, bmi_log)
```

```
## # A tibble: 500 × 3
##       id   bmi bmi_log
##    <dbl> <dbl>   <dbl>
##  1     6  28.7    1.46
##  2    11  36.0    1.56
##  3    21  25.0    1.40
##  4    46  24.6    1.39
##  5    47  25.8    1.41
##  6    63  22.0    1.34
##  7    67  27.6    1.44
##  8    86  24.6    1.39
##  9    90  30.2    1.48
## 10    92  19.4    1.29
## # ℹ 490 more rows
```

---
# Mutate

``` r
x <- mutate(sinai_covid, 
            new_facility = paste("Facility:",facility))

select(x, id, new_facility)
```

```
## # A tibble: 500 × 2
##       id new_facility                         
##    <dbl> <chr>                                
##  1     6 Facility: THE MOUNT SINAI HOSPITAL   
##  2    11 Facility: THE MOUNT SINAI HOSPITAL   
##  3    21 Facility: THE MOUNT SINAI HOSPITAL   
##  4    46 Facility: MOUNT SINAI QUEENS HOSPITAL
##  5    47 Facility: THE MOUNT SINAI HOSPITAL   
##  6    63 Facility: MOUNT SINAI QUEENS HOSPITAL
##  7    67 Facility: MOUNT SINAI WEST           
##  8    86 Facility: MOUNT SINAI BI BROOKLYN    
##  9    90 Facility: MOUNT SINAI QUEENS HOSPITAL
## 10    92 Facility: THE MOUNT SINAI HOSPITAL   
## # ℹ 490 more rows
```

---
# Mutate

``` r
x <- mutate(sinai_covid, 
            facility = tolower(facility))

select(x, id, facility)
```

```
## # A tibble: 500 × 2
##       id facility                   
##    <dbl> <chr>                      
##  1     6 the mount sinai hospital   
##  2    11 the mount sinai hospital   
##  3    21 the mount sinai hospital   
##  4    46 mount sinai queens hospital
##  5    47 the mount sinai hospital   
##  6    63 mount sinai queens hospital
##  7    67 mount sinai west           
##  8    86 mount sinai bi brooklyn    
##  9    90 mount sinai queens hospital
## 10    92 the mount sinai hospital   
## # ℹ 490 more rows
```
…
